SystemVerilog/DFF_VerificationInfrastructure/dump.vcd
$date
	Wed Jan 15 01:05:15 2025
$end

$version
	Synopsys VCS version U-2023.03-SP2_Full64
$end

$timescale
	1ns
$end

$comment Csum: 1 d1dd0de8d4d78a1b $end


$scope module $unit $end
$upscope $end


$scope module tb $end

$scope begin unnamed$$_vcs_3 $end
$upscope $end


$scope begin unnamed$$_vcs_0 $end
$upscope $end


$scope begin unnamed$$_vcs_1 $end
$upscope $end


$scope begin unnamed$$_vcs_2 $end
$upscope $end


$scope module dif $end
$var reg 1 ! clk $end
$var reg 1 " reset $end
$var reg 1 # din $end
$var reg 1 $ dout $end
$upscope $end


$scope module dut $end
$upscope $end

$upscope $end

$enddefinitions $end

#0
$dumpvars
0!
x#
x$
1"
$end
#10
1!
0$
#20
0!
#30
1!
#40
0!
#50
1!
#60
0!
#70
1!
#80
0!
#90
1!
0"
#100
0!
#110
1!
x$
0#
#120
0!
#130
1!
0$
#140
0!
#150
1!
1#
#160
0!
#170
1!
0#
1$
#180
0!
#190
1!
0$
1#
#200
0!
#210
1!
0#
1$
#220
0!
#230
1!
0$
1#
#240
0!
#250
1!
0#
1$
#260
0!
#270
1!
0$
1#
#280
0!
#290
1!
0#
1$
#300
0!
#310
1!
0$
1#
#320
0!
#330
1!
0#
1$
#340
0!
#350
1!
0$
1#
#360
0!
#370
1!
0#
1$
#380
0!
#390
1!
0$
1#
#400
0!
#410
1!
0#
1$
#420
0!
#430
1!
0$
#440
0!
#450
1!
#460
0!
#470
1!
1#
#480
0!
#490
1!
0#
1$
#500
0!
#510
1!
0$
#520
0!
#530
1!
#540
0!
#550
1!
1#
#560
0!
#570
1!
0#
1$
#580
0!
#590
1!
0$
1#
#600
0!
#610
1!
0#
1$
#620
0!
#630
1!
0$
#640
0!
#650
1!
#660
0!
#670
1!
1#
#680
0!
#690
1!
0#
1$
#700
0!
#710
1!
0$
#720
0!
#730
1!
#740
0!
#750
1!
1#
#760
0!
#770
1!
0#
1$
#780
0!
#790
1!
0$
#800
0!
#810
1!
#820
0!
#830
1!
#840
0!
#850
1!
#860
0!
#870
1!
#880
0!
#890
1!
#900
0!
#910
1!
#920
0!
#930
1!
#940
0!
#950
1!
#960
0!
#970
1!
#980
0!
#990
1!
#1000
0!
#1010
1!
#1020
0!
#1030
1!
#1040
0!
#1050
1!
#1060
0!
#1070
1!
#1080
0!
#1090
1!
#1100
0!
#1110
1!
1#
#1120
0!
#1130
1!
0#
1$
#1140
0!
#1150
1!
0$
1#
#1160
0!
#1170
1!
0#
1$
#1180
0!
#1190
1!
0$
1#
#1200
0!
#1210
1!
0#
1$
#1220
0!
#1230
1!
0$
1#
#1240
0!
#1250
1!
0#
1$
#1260
0!
#1270
1!
0$
