SystemVerilog/FIFO_VerificationInfrastructure/dump.vcd
$date
	Wed Jan 15 21:55:36 2025
$end

$version
	Synopsys VCS version U-2023.03-SP2_Full64
$end

$timescale
	1ns
$end

$comment Csum: 1 ec2cd8d14cbfbad4 $end


$scope module $unit $end
$upscope $end


$scope module tb $end

$scope begin unnamed$$_vcs_3 $end
$upscope $end


$scope begin unnamed$$_vcs_0 $end
$upscope $end


$scope begin unnamed$$_vcs_1 $end
$upscope $end


$scope begin unnamed$$_vcs_2 $end
$upscope $end


$scope module fif $end
$var reg 1 ! clock $end
$var reg 1 " rd $end
$var reg 1 # wr $end
$var reg 1 $ full $end
$var reg 1 % empty $end
$var reg 1 & rst $end
$var reg 8 ' data_in [7:0] $end
$var reg 8 ( data_out [7:0] $end
$upscope $end


$scope module DUT $end
$var wire 1 ) clk $end
$var wire 1 * rst $end
$var wire 1 + wr $end
$var wire 1 , rd $end
$var wire 8 - din [7:0] $end
$var reg 8 . dout [7:0] $end
$var wire 1 / empty $end
$var wire 1 0 full $end
$var reg 4 1 wptr [3:0] $end
$var reg 4 2 rptr [3:0] $end
$var reg 5 3 cnt [4:0] $end
$upscope $end

$upscope $end

$enddefinitions $end

#0
$dumpvars
bxxxxxxxx (
b00000000 '
b00000 3
bxxxxxxxx .
b0000 2
b0000 1
b00000000 -
0!
1%
0$
0"
1&
0#
0)
1/
00
0,
1*
0+
$end
#10
1!
1)
#20
0!
0)
#30
1!
1)
#40
0!
0)
#50
1!
1)
#60
0!
0)
#70
1!
1)
#80
0!
0)
#90
1!
1)
0&
0*
#100
0!
0)
#110
1!
1)
1"
1,
#120
0!
0)
#130
1!
1)
0"
0,
#140
0!
0)
#150
1!
1)
#160
0!
0)
#170
1!
1)
1"
1,
#180
0!
0)
#190
1!
1)
0"
0,
#200
0!
0)
#210
1!
1)
#220
0!
0)
#230
1!
1)
1"
1,
#240
0!
0)
#250
1!
1)
0"
0,
#260
0!
0)
#270
1!
1)
#280
0!
0)
#290
1!
1)
1"
1,
#300
0!
0)
#310
1!
1)
0"
0,
#320
0!
0)
#330
1!
1)
#340
0!
0)
#350
1!
1)
1#
1+
b00001000 '
b00001000 -
0#
0+
#360
0!
0)
#370
1!
1)
#380
0!
0)
#390
1!
1)
#400
0!
0)
#410
1!
1)
1"
1,
#420
0!
0)
#430
1!
1)
0"
0,
#440
0!
0)
#450
1!
1)
#460
0!
0)
#470
1!
1)
1#
1+
b00000001 '
b00000001 -
0#
0+
#480
0!
0)
#490
1!
1)
#500
0!
0)
#510
1!
1)
#520
0!
0)
#530
1!
1)
1#
1+
b00001010 '
b00001010 -
0#
0+
#540
0!
0)
#550
1!
1)
#560
0!
0)
#570
1!
1)
#580
0!
0)
#590
1!
1)
1"
1,
#600
0!
0)
#610
1!
1)
0"
0,
#620
0!
0)
#630
1!
1)
#640
0!
0)
#650
1!
1)
1#
1+
b00001001 '
b00001001 -
0#
0+
#660
0!
0)
#670
1!
1)
#680
0!
0)
#690
1!
1)
#700
0!
0)
#710
1!
1)
1#
1+
b00000100 '
b00000100 -
0#
0+
#720
0!
0)
#730
1!
1)
#740
0!
0)
#750
1!
1)
#760
0!
0)
#770
1!
1)
1"
1,
#780
0!
0)
#790
1!
1)
0"
0,
#800
0!
0)
#810
1!
1)
#820
0!
0)
#830
1!
1)
1#
1+
b00000110 '
b00000110 -
0#
0+
#840
0!
0)
#850
1!
1)
#860
0!
0)
#870
1!
1)
#880
0!
0)
#890
1!
1)
1#
1+
0#
0+
#900
0!
0)
#910
1!
1)
#920
0!
0)
#930
1!
1)
#940
0!
0)
#950
1!
1)
1#
1+
b00000101 '
b00000101 -
0#
0+
#960
0!
0)
#970
1!
1)
#980
0!
0)
#990
1!
1)
#1000
0!
0)
#1010
1!
1)
1"
1,
#1020
0!
0)
#1030
1!
1)
0"
0,
#1040
0!
0)
#1050
1!
1)
#1060
0!
0)
#1070
1!
1)
1"
1,
#1080
0!
0)
#1090
1!
1)
0"
0,
#1100
0!
0)
#1110
1!
1)
#1120
0!
0)
#1130
1!
1)
1"
1,
#1140
0!
0)
#1150
1!
1)
0"
0,
#1160
0!
0)
#1170
1!
1)
#1180
0!
0)
#1190
1!
1)
1#
1+
b00000110 '
b00000110 -
0#
0+
#1200
0!
0)
#1210
1!
1)
#1220
0!
0)
#1230
1!
1)
#1240
0!
0)
#1250
1!
1)
1"
1,
#1260
0!
0)
#1270
1!
1)
0"
0,
#1280
0!
0)
#1290
1!
1)
#1300
0!
0)
#1310
1!
1)
1#
1+
b00001010 '
b00001010 -
0#
0+
#1320
0!
0)
#1330
1!
1)
#1340
0!
0)
#1350
1!
1)
#1360
0!
0)
#1370
1!
1)
1"
1,
#1380
0!
0)
#1390
1!
1)
0"
0,
#1400
0!
0)
#1410
1!
1)
#1420
0!
0)
#1430
1!
1)
1"
1,
#1440
0!
0)
#1450
1!
1)
0"
0,
#1460
0!
0)
#1470
1!
1)
#1480
0!
0)
#1490
1!
1)
1#
1+
b00000011 '
b00000011 -
0#
0+
#1500
0!
0)
#1510
1!
1)
#1520
0!
0)
#1530
1!
1)
#1540
0!
0)
#1550
1!
1)
1#
1+
b00000100 '
b00000100 -
0#
0+
#1560
0!
0)
#1570
1!
1)
#1580
0!
0)
#1590
1!
1)
#1600
0!
0)
#1610
1!
1)
1"
1,
#1620
0!
0)
#1630
1!
1)
0"
0,
#1640
0!
0)
#1650
1!
1)
#1660
0!
0)
#1670
1!
1)
1#
1+
b00000001 '
b00000001 -
0#
0+
#1680
0!
0)
#1690
1!
1)
#1700
0!
0)
#1710
1!
1)
#1720
0!
0)
#1730
1!
1)
1"
1,
#1740
0!
0)
#1750
1!
1)
0"
0,
#1760
0!
0)
#1770
1!
1)
#1780
0!
0)
#1790
1!
1)
1#
1+
b00001010 '
b00001010 -
0#
0+
#1800
0!
0)
#1810
1!
1)
#1820
0!
0)
#1830
1!
1)
#1840
0!
0)
#1850
1!
1)
1"
1,
#1860
0!
0)
#1870
1!
1)
0"
0,
